{
  "formatVersion": 1,
  "database": {
    "version": 2,
    "identityHash": "78dc3c6ad086ea5e6f9b4e4a4e8ae8f5",
    "entities": [
      {
        "tableName": "WatsonResponse",
        "createSql": "CREATE TABLE IF NOT EXISTS `${TABLE_NAME}` (`uid` INTEGER PRIMARY KEY AUTOINCREMENT NOT NULL, `user_query` TEXT, `conversation_response` TEXT, `document_text` TEXT, `html` TEXT, `file_name` TEXT, `title` TEXT)",
        "fields": [
          {
            "fieldPath": "uid",
            "columnName": "uid",
            "affinity": "INTEGER",
            "notNull": true
          },
          {
            "fieldPath": "user_query",
            "columnName": "user_query",
            "affinity": "TEXT",
            "notNull": false
          },
          {
            "fieldPath": "conversation_response",
            "columnName": "conversation_response",
            "affinity": "TEXT",
            "notNull": false
          },
          {
            "fieldPath": "document_text",
            "columnName": "document_text",
            "affinity": "TEXT",
            "notNull": false
          },
          {
            "fieldPath": "html",
            "columnName": "html",
            "affinity": "TEXT",
            "notNull": false
          },
          {
            "fieldPath": "file_name",
            "columnName": "file_name",
            "affinity": "TEXT",
            "notNull": false
          },
          {
            "fieldPath": "title",
            "columnName": "title",
            "affinity": "TEXT",
            "notNull": false
          }
        ],
        "primaryKey": {
          "columnNames": [
            "uid"
          ],
          "autoGenerate": true
        },
        "indices": [],
        "foreignKeys": []
      },
      {
        "tableName": "ChatMessage",
        "createSql": "CREATE TABLE IF NOT EXISTS `${TABLE_NAME}` (`uid` INTEGER PRIMARY KEY AUTOINCREMENT NOT NULL, `message` TEXT, `origin_id` INTEGER)",
        "fields": [
          {
            "fieldPath": "uid",
            "columnName": "uid",
            "affinity": "INTEGER",
            "notNull": true
          },
          {
            "fieldPath": "message",
            "columnName": "message",
            "affinity": "TEXT",
            "notNull": false
          },
          {
            "fieldPath": "origin_id",
            "columnName": "origin_id",
            "affinity": "INTEGER",
            "notNull": false
          }
        ],
        "primaryKey": {
          "columnNames": [
            "uid"
          ],
          "autoGenerate": true
        },
        "indices": [],
        "foreignKeys": []
      }
    ],
    "setupQueries": [
      "CREATE TABLE IF NOT EXISTS room_master_table (id INTEGER PRIMARY KEY,identity_hash TEXT)",
      "INSERT OR REPLACE INTO room_master_table (id,identity_hash) VALUES(42, \"78dc3c6ad086ea5e6f9b4e4a4e8ae8f5\")"
    ]
  }
}